<svg width="555" height="565" viewBox="0 0 555 565" fill="none" xmlns="http://www.w3.org/2000/svg">
<g clip-path="url(#clip0)">
<path d="M201.751 217.86V103.866L228.627 88.3964V202.207L201.751 217.86Z" fill="#173D7A"/>
<path d="M201.751 103.866L174.876 88.3964V202.207L201.751 217.86V103.866Z" fill="#396CAA"/>
<path d="M228.627 88.3964L201.751 72.927L174.876 88.3964L201.751 103.866L228.627 88.3964Z" fill="#D4ECFF"/>
<path d="M228.627 223.017L201.751 207.547V217.86L228.627 233.33V223.017Z" fill="#95D359"/>
<path d="M174.876 233.33V150.458L201.751 134.989V217.86L174.876 233.33Z" fill="#C13D1A"/>
<path d="M174.876 150.458L148 134.989V217.86L174.876 233.33V150.458Z" fill="#DB5126"/>
<path d="M201.751 134.989L174.876 119.519L148 134.989L174.876 150.458L201.751 134.989Z" fill="#EF602E"/>
<path d="M174.876 233.33V150.458L201.751 134.989V217.86L174.876 233.33Z" fill="#396CAA"/>
<path d="M174.876 150.458L148 134.989V217.86L174.876 233.33V150.458Z" fill="#5793CE"/>
<path d="M201.751 134.989L174.876 119.519L148 134.989L174.876 150.458L201.751 134.989Z" fill="#D4ECFF"/>
<path d="M201.751 248.799V202.207L228.627 186.737V233.33L201.751 248.799Z" fill="#173D7A"/>
<path d="M201.751 202.207L174.876 186.737V233.33L201.751 248.799V202.207Z" fill="#396CAA"/>
<path d="M228.627 186.737L201.751 171.268L174.876 186.737L201.751 202.207L228.627 186.737Z" fill="#D4ECFF"/>
<path d="M554.538 309.319L553.761 306.287L544.667 308.618L545.444 311.65L554.538 309.319Z" fill="#5793CE"/>
<path d="M549.903 314.077L549.08 310.866L539.986 313.198L540.809 316.409L549.903 314.077Z" fill="#5793CE"/>
<path d="M545.283 318.231L544.506 315.198L535.411 317.531L536.188 320.563L545.283 318.231Z" fill="#5793CE"/>
<path d="M540.555 322.766L539.778 319.733L530.684 322.064L531.461 325.097L540.555 322.766Z" fill="#5793CE"/>
<path d="M484.498 214.361L277.96 95.2102C275.383 93.7369 272.806 93.3686 270.965 94.2894L270.597 94.4735L263.786 97.6042L271.149 101.287C271.149 101.472 271.149 101.472 271.149 101.656V271.266C271.149 279.738 276.488 289.682 282.93 293.365L483.761 409.386L484.866 418.778L492.229 415.279C494.622 413.805 496.095 410.675 496.095 406.071V236.46C496.095 227.989 490.94 218.044 484.498 214.361Z" fill="#173D7A"/>
<path d="M484.498 214.361L277.96 95.2102C275.383 93.7369 272.806 93.3686 270.965 94.2894L270.597 94.4735L263.786 97.6042L271.149 101.287C271.149 101.472 271.149 101.472 271.149 101.656V213.44L365.03 287.656L492.597 223.385C490.572 219.518 487.627 216.203 484.498 214.361Z" fill="#396CAA"/>
<path d="M487.995 217.123L467.746 225.595L483.025 237.381L495.726 232.04C494.622 226.331 491.677 220.807 487.995 217.123Z" fill="#274F89"/>
<path d="M477.687 417.857L271.333 298.706C264.891 295.023 259.552 285.078 259.552 276.607V106.996C259.552 98.5251 264.706 94.6577 271.333 98.3409L477.687 217.492C484.129 221.175 489.468 231.12 489.468 239.591V409.201C489.468 417.857 484.129 421.724 477.687 417.857Z" fill="#D4ECFF"/>
<path d="M470.876 405.334L278.144 294.102C272.254 290.603 267.468 281.579 267.468 273.844V118.598C267.468 110.864 272.254 107.365 278.144 110.679L470.876 221.912C476.766 225.411 481.552 234.434 481.552 242.169V397.415C481.552 405.15 476.766 408.833 470.876 405.334Z" fill="white"/>
<path d="M470.876 405.334L278.144 294.102C272.254 290.603 267.468 281.579 267.468 273.844V118.598C267.468 110.864 272.254 107.365 278.144 110.679L470.876 221.912C476.766 225.411 481.552 234.434 481.552 242.169V397.415C481.552 405.15 476.766 408.833 470.876 405.334Z" fill="white"/>
<path d="M480.816 423.197L453.02 419.514L273.91 316.017C268.204 312.702 258.08 313.07 251.453 316.938L124.438 390.233L107.687 388.023V397.599C107.502 399.809 108.791 401.835 111.552 403.492L314.592 520.802C320.299 524.117 330.423 523.748 337.05 519.881L475.294 439.956C478.975 437.746 480.816 434.984 480.816 432.405V423.197Z" fill="#173D7A"/>
<path d="M346.254 357.821L333.552 350.455H193.652L124.622 390.233L107.871 388.023V397.599C107.687 399.809 108.975 401.835 111.736 403.492L314.776 520.802C317.721 522.643 321.955 523.196 326.373 523.012L346.254 357.821Z" fill="#396CAA"/>
<path d="M115.234 389.128L107.871 388.207V397.783C107.687 399.993 108.975 402.019 111.736 403.677L115.234 405.702V389.128Z" fill="#5793CE"/>
<path d="M316.617 521.723C322.139 523.748 329.871 523.38 335.577 520.618V499.439H316.617V521.723Z" fill="#274F89"/>
<path d="M314.592 511.225L111.552 393.916C105.846 390.601 106.582 384.892 113.209 381.025L251.453 301.1C258.08 297.233 268.204 296.864 273.91 300.179L476.95 417.488C482.657 420.803 481.92 426.512 475.294 430.38L337.05 510.305C330.423 514.172 320.483 514.54 314.592 511.225Z" fill="#D4ECFF"/>
<path d="M475.293 427.065L337.05 506.99C330.423 510.857 320.298 511.225 314.592 507.911L111.552 390.417C109.711 389.312 108.423 388.023 108.055 386.55C107.134 389.312 108.239 392.075 111.552 393.916L314.592 511.226C320.298 514.54 330.423 514.172 337.05 510.305L475.293 430.38C479.711 427.801 481.552 424.302 480.448 421.356C479.895 423.382 478.055 425.407 475.293 427.065Z" fill="white"/>
<path d="M197.886 355.059L188.682 349.718C187.945 349.35 187.945 348.613 188.866 348.061L199.726 341.799C200.647 341.247 201.935 341.247 202.672 341.615L211.876 346.956C212.612 347.324 212.612 348.061 211.691 348.613L200.831 354.874C199.91 355.427 198.622 355.611 197.886 355.059Z" fill="#173D7A"/>
<path d="M212.244 363.346L203.04 358.005C202.304 357.637 202.303 356.9 203.224 356.348L214.085 350.086C215.005 349.534 216.294 349.534 217.03 349.902L226.234 355.243C226.97 355.611 226.97 356.348 226.05 356.9L215.189 363.162C214.269 363.714 212.98 363.714 212.244 363.346Z" fill="#173D7A"/>
<path d="M226.418 371.449L217.214 366.108C216.478 365.74 216.478 365.003 217.398 364.451L228.259 358.189C229.179 357.637 230.468 357.637 231.204 358.005L240.408 363.346C241.144 363.714 241.144 364.451 240.224 365.003L229.363 371.265C228.443 371.817 227.154 372.001 226.418 371.449Z" fill="#173D7A"/>
<path d="M245.93 364.819L236.726 359.479C235.99 359.11 235.99 358.374 236.91 357.821L245.93 352.481C246.851 351.928 248.139 351.928 248.876 352.296L258.08 357.637C258.816 358.005 258.816 358.742 257.896 359.294L248.876 364.635C247.955 365.188 246.667 365.188 245.93 364.819Z" fill="#173D7A"/>
<path d="M260.105 372.922L250.901 367.582C250.164 367.213 250.164 366.477 251.085 365.924L260.105 360.584C261.025 360.031 262.313 360.031 263.05 360.399L272.254 365.74C272.99 366.108 272.99 366.845 272.07 367.397L263.05 372.738C262.129 373.291 260.841 373.475 260.105 372.922Z" fill="#173D7A"/>
<path d="M274.279 381.209L265.075 375.869C264.338 375.5 264.338 374.764 265.259 374.211L274.279 368.871C275.199 368.318 276.488 368.318 277.224 368.686L286.428 374.027C287.164 374.395 287.164 375.132 286.244 375.685L277.224 381.025C276.303 381.578 275.015 381.578 274.279 381.209Z" fill="#173D7A"/>
<path d="M288.453 389.312L279.249 383.972C278.512 383.603 278.512 382.867 279.433 382.314L288.453 376.974C289.373 376.421 290.662 376.421 291.398 376.79L300.602 382.13C301.338 382.498 301.338 383.235 300.418 383.788L291.398 389.128C290.478 389.681 289.189 389.865 288.453 389.312Z" fill="#173D7A"/>
<path d="M302.627 397.6L293.423 392.259C292.687 391.891 292.687 391.154 293.607 390.602L302.627 385.261C303.547 384.708 304.836 384.708 305.572 385.077L314.776 390.417C315.512 390.786 315.512 391.522 314.592 392.075L305.572 397.415C304.836 397.968 303.547 397.968 302.627 397.6Z" fill="#173D7A"/>
<path d="M316.985 405.702L307.781 400.362C307.045 399.994 307.045 399.257 307.965 398.704L316.985 393.364C317.905 392.811 319.194 392.811 319.93 393.18L329.134 398.52C329.871 398.889 329.871 399.625 328.95 400.178L319.93 405.518C319.01 406.071 317.721 406.255 316.985 405.702Z" fill="#173D7A"/>
<path d="M331.159 413.99L321.955 408.649C321.219 408.281 321.219 407.544 322.139 406.992L331.159 401.651C332.08 401.098 333.368 401.098 334.104 401.467L343.308 406.807C344.045 407.176 344.045 407.912 343.124 408.465L334.104 413.805C333.184 414.358 331.896 414.358 331.159 413.99Z" fill="#173D7A"/>
<path d="M345.333 422.093L336.129 416.752C335.393 416.384 335.393 415.647 336.313 415.095L345.333 409.754C346.254 409.201 347.542 409.201 348.279 409.57L357.483 414.91C358.219 415.279 358.219 416.015 357.298 416.568L348.279 421.908C347.358 422.461 346.07 422.645 345.333 422.093Z" fill="#173D7A"/>
<path d="M359.507 430.38L350.303 425.039C349.567 424.671 349.567 423.934 350.488 423.382L359.507 418.041C360.428 417.489 361.716 417.489 362.453 417.857L371.657 423.198C372.393 423.566 372.393 424.302 371.473 424.855L362.453 430.196C361.532 430.748 360.244 430.748 359.507 430.38Z" fill="#173D7A"/>
<path d="M373.682 438.483L364.478 433.142C363.741 432.774 363.741 432.037 364.662 431.485L373.682 426.144C374.602 425.592 375.89 425.592 376.627 425.96L385.831 431.301C386.567 431.669 386.567 432.406 385.647 432.958L376.627 438.299C375.706 438.851 374.418 439.035 373.682 438.483Z" fill="#173D7A"/>
<path d="M266.915 360.952L257.711 355.611C256.975 355.243 256.975 354.506 257.895 353.954L266.915 348.613C267.836 348.061 269.124 348.061 269.861 348.429L279.065 353.77C279.801 354.138 279.801 354.875 278.88 355.427L269.861 360.768C268.94 361.32 267.652 361.32 266.915 360.952Z" fill="#396CAA"/>
<path d="M252.557 352.481L243.353 347.14C242.617 346.772 242.617 346.035 243.537 345.483L252.557 340.142C253.478 339.589 254.766 339.589 255.502 339.958L264.706 345.298C265.443 345.667 265.443 346.403 264.522 346.956L255.502 352.296C254.582 352.849 253.293 353.033 252.557 352.481Z" fill="#396CAA"/>
<path d="M238.015 344.193L218.318 332.775C217.582 332.407 217.582 331.67 218.502 331.118L227.522 325.777C228.443 325.225 229.731 325.225 230.468 325.593L250.164 337.011C250.9 337.379 250.9 338.116 249.98 338.669L240.96 344.009C240.04 344.562 238.751 344.746 238.015 344.193Z" fill="#173D7A"/>
<path d="M248.139 334.065L232.124 324.857C231.388 324.488 231.388 323.752 232.308 323.199L241.328 317.859C242.249 317.306 243.537 317.306 244.274 317.674L260.288 326.882C261.025 327.251 261.025 327.987 260.104 328.54L251.084 333.88C250.164 334.433 248.876 334.617 248.139 334.065Z" fill="#173D7A"/>
<path d="M281.089 369.055L271.886 363.714C271.149 363.346 271.149 362.609 272.07 362.057L281.089 356.716C282.01 356.164 283.298 356.164 284.035 356.532L293.239 361.873C293.975 362.241 293.975 362.978 293.055 363.53L284.035 368.871C283.114 369.423 281.826 369.423 281.089 369.055Z" fill="#396CAA"/>
<path d="M295.264 377.342L286.06 372.001C285.323 371.633 285.323 370.896 286.244 370.344L295.264 365.003C296.184 364.451 297.473 364.451 298.209 364.819L307.413 370.16C308.149 370.528 308.149 371.265 307.229 371.817L298.209 377.158C297.289 377.71 296 377.71 295.264 377.342Z" fill="#173D7A"/>
<path d="M309.438 385.445L300.234 380.104C299.497 379.736 299.497 378.999 300.418 378.447L309.438 373.106C310.358 372.554 311.647 372.554 312.383 372.922L321.587 378.263C322.323 378.631 322.323 379.368 321.403 379.92L312.383 385.261C311.463 385.813 310.174 385.813 309.438 385.445Z" fill="#173D7A"/>
<path d="M323.612 393.732L314.408 388.392C313.672 388.023 313.672 387.287 314.592 386.734L323.612 381.393C324.532 380.841 325.821 380.841 326.557 381.209L335.761 386.55C336.498 386.918 336.498 387.655 335.577 388.207L326.557 393.548C325.637 394.1 324.348 394.1 323.612 393.732Z" fill="#173D7A"/>
<path d="M337.786 401.835L328.582 396.495C327.846 396.126 327.846 395.39 328.766 394.837L337.786 389.497C338.706 388.944 339.995 388.944 340.731 389.312L349.935 394.653C350.672 395.021 350.672 395.758 349.751 396.31L340.731 401.651C339.811 402.203 338.522 402.203 337.786 401.835Z" fill="#173D7A"/>
<path d="M351.96 410.122L342.756 404.782C342.02 404.413 342.02 403.677 342.94 403.124L351.96 397.784C352.881 397.231 354.169 397.231 354.905 397.599L364.109 402.94C364.846 403.308 364.846 404.045 363.925 404.598L354.905 409.938C353.985 410.491 352.696 410.491 351.96 410.122Z" fill="#173D7A"/>
<path d="M366.134 418.225L356.93 412.885C356.194 412.516 356.194 411.78 357.114 411.227L366.134 405.887C367.055 405.334 368.343 405.334 369.08 405.703L378.284 411.043C379.02 411.411 379.02 412.148 378.099 412.701L369.08 418.041C368.159 418.594 366.871 418.594 366.134 418.225Z" fill="#173D7A"/>
<path d="M380.308 426.512L371.104 421.172C370.368 420.803 370.368 420.067 371.288 419.514L380.308 414.174C381.229 413.621 382.517 413.621 383.254 413.99L392.458 419.33C393.194 419.699 393.194 420.435 392.274 420.988L383.254 426.328C382.333 426.881 381.045 426.881 380.308 426.512Z" fill="#173D7A"/>
<path d="M394.483 434.615L385.279 429.275C384.542 428.907 384.542 428.17 385.463 427.617L394.483 422.277C395.403 421.724 396.691 421.724 397.428 422.093L406.632 427.433C407.368 427.802 407.368 428.538 406.448 429.091L397.428 434.431C396.507 434.984 395.219 434.984 394.483 434.615Z" fill="#173D7A"/>
<path d="M419.701 449.164L399.637 437.562C398.9 437.194 398.9 436.457 399.821 435.905L408.841 430.564C409.761 430.012 411.05 430.012 411.786 430.38L431.851 441.982C432.587 442.35 432.587 443.087 431.667 443.639L422.647 448.98C421.726 449.532 420.438 449.717 419.701 449.164Z" fill="#173D7A"/>
<path d="M447.497 433.326L430.562 423.566C429.826 423.198 429.826 422.461 430.746 421.909L439.766 416.568C440.687 416.015 441.975 416.015 442.711 416.384L459.647 426.144C460.383 426.512 460.383 427.249 459.463 427.802L450.443 433.142C449.522 433.695 448.234 433.695 447.497 433.326Z" fill="#173D7A"/>
<path d="M305.94 367.397L296.736 362.057C296 361.689 296 360.952 296.92 360.399L305.94 355.059C306.861 354.506 308.149 354.506 308.886 354.875L318.089 360.215C318.826 360.584 318.826 361.32 317.905 361.873L308.886 367.213C307.965 367.766 306.677 367.95 305.94 367.397Z" fill="#173D7A"/>
<path d="M291.398 359.11L282.194 353.77C281.458 353.401 281.458 352.665 282.378 352.112L291.398 346.772C292.318 346.219 293.607 346.219 294.343 346.587L303.547 351.928C304.284 352.296 304.284 353.033 303.363 353.585L294.343 358.926C293.423 359.479 292.134 359.479 291.398 359.11Z" fill="#173D7A"/>
<path d="M276.856 350.639L267.652 345.298C266.915 344.93 266.915 344.193 267.836 343.641L276.856 338.3C277.776 337.748 279.065 337.748 279.801 338.116L289.005 343.457C289.741 343.825 289.741 344.562 288.821 345.114L279.801 350.455C278.881 351.007 277.592 351.191 276.856 350.639Z" fill="#396CAA"/>
<path d="M262.313 342.352L253.109 337.011C252.373 336.643 252.373 335.906 253.293 335.354L262.313 330.013C263.234 329.461 264.522 329.461 265.259 329.829L274.463 335.17C275.199 335.538 275.199 336.275 274.279 336.827L265.259 342.168C264.338 342.72 263.05 342.72 262.313 342.352Z" fill="#173D7A"/>
<path d="M320.114 375.685L310.91 370.344C310.174 369.976 310.174 369.239 311.095 368.686L320.114 363.346C321.035 362.793 322.323 362.793 323.06 363.162L332.264 368.502C333 368.871 333 369.607 332.08 370.16L323.06 375.5C322.139 376.053 320.851 376.053 320.114 375.685Z" fill="#173D7A"/>
<path d="M334.288 383.788L325.085 378.447C324.348 378.079 324.348 377.342 325.269 376.79L334.288 371.449C335.209 370.896 336.497 370.896 337.234 371.265L346.438 376.605C347.174 376.974 347.174 377.71 346.254 378.263L337.234 383.603C336.313 384.156 335.025 384.34 334.288 383.788Z" fill="#173D7A"/>
<path d="M348.463 392.075L339.259 386.734C338.522 386.366 338.522 385.629 339.443 385.077L348.463 379.736C349.383 379.184 350.672 379.184 351.408 379.552L360.612 384.893C361.348 385.261 361.348 385.998 360.428 386.55L351.408 391.891C350.488 392.443 349.199 392.443 348.463 392.075Z" fill="#173D7A"/>
<path d="M362.637 400.178L353.433 394.837C352.696 394.469 352.696 393.732 353.617 393.18L362.637 387.839C363.557 387.287 364.846 387.287 365.582 387.655L374.786 392.995C375.522 393.364 375.522 394.1 374.602 394.653L365.582 399.994C364.662 400.546 363.373 400.73 362.637 400.178Z" fill="#173D7A"/>
<path d="M376.811 408.465L367.607 403.124C366.871 402.756 366.871 402.019 367.791 401.467L376.811 396.126C377.731 395.574 379.02 395.574 379.756 395.942L388.96 401.283C389.696 401.651 389.696 402.388 388.776 402.94L379.756 408.281C378.836 408.833 377.547 408.833 376.811 408.465Z" fill="#173D7A"/>
<path d="M390.985 416.568L381.781 411.227C381.045 410.859 381.045 410.122 381.965 409.57L390.985 404.229C391.905 403.677 393.194 403.677 393.93 404.045L403.134 409.386C403.871 409.754 403.871 410.491 402.95 411.043L393.93 416.384C393.01 416.936 391.721 417.12 390.985 416.568Z" fill="#173D7A"/>
<path d="M405.159 424.855L395.955 419.514C395.219 419.146 395.219 418.409 396.139 417.857L405.159 412.516C406.079 411.964 407.368 411.964 408.104 412.332L417.308 417.673C418.045 418.041 418.045 418.778 417.124 419.33L408.104 424.671C407.184 425.223 405.895 425.223 405.159 424.855Z" fill="#173D7A"/>
<path d="M419.333 432.958L410.129 427.617C409.393 427.249 409.393 426.512 410.313 425.96L419.333 420.619C420.254 420.067 421.542 420.067 422.279 420.435L431.483 425.776C432.219 426.144 432.219 426.881 431.298 427.433L422.279 432.774C421.358 433.326 420.07 433.51 419.333 432.958Z" fill="#173D7A"/>
<path d="M433.691 441.245L424.487 435.905C423.751 435.536 423.751 434.8 424.672 434.247L433.691 428.907C434.612 428.354 435.9 428.354 436.637 428.722L445.841 434.063C446.577 434.431 446.577 435.168 445.657 435.72L436.637 441.061C435.716 441.614 434.428 441.614 433.691 441.245Z" fill="#173D7A"/>
<path d="M298.393 347.14L289.189 341.799C288.453 341.431 288.453 340.694 289.373 340.142L298.393 334.801C299.313 334.249 300.602 334.249 301.338 334.617L310.542 339.958C311.279 340.326 311.279 341.063 310.358 341.615L301.338 346.956C300.418 347.508 299.129 347.692 298.393 347.14Z" fill="#173D7A"/>
<path d="M284.403 339.037L275.199 333.696C274.463 333.328 274.463 332.591 275.383 332.039L284.403 326.698C285.323 326.146 286.612 326.146 287.348 326.514L296.552 331.855C297.289 332.223 297.289 332.96 296.368 333.512L287.164 338.853C286.428 339.405 285.139 339.405 284.403 339.037Z" fill="#173D7A"/>
<path d="M270.229 330.934L261.025 325.593C260.288 325.225 260.288 324.488 261.209 323.936L270.229 318.595C271.149 318.043 272.438 318.043 273.174 318.411L282.378 323.752C283.114 324.12 283.114 324.857 282.194 325.409L273.174 330.75C272.254 331.302 270.965 331.302 270.229 330.934Z" fill="#173D7A"/>
<path d="M256.055 322.831L246.851 317.49C246.114 317.122 246.114 316.385 247.035 315.833L256.055 310.492C256.975 309.94 258.264 309.94 259 310.308L268.204 315.649C268.94 316.017 268.94 316.754 268.02 317.306L259 322.647C258.08 323.199 256.791 323.199 256.055 322.831Z" fill="#173D7A"/>
<path d="M270.597 314.36L261.393 309.019C260.657 308.651 260.657 307.914 261.577 307.361L264.522 305.704C265.443 305.152 266.731 305.152 267.468 305.52L276.672 310.861C277.408 311.229 277.408 311.965 276.487 312.518L273.542 314.175C272.622 314.728 271.333 314.728 270.597 314.36Z" fill="#173D7A"/>
<path d="M289.005 325.041L279.801 319.7C279.065 319.332 279.065 318.595 279.985 318.043L282.93 316.385C283.851 315.833 285.139 315.833 285.876 316.201L295.08 321.542C295.816 321.91 295.816 322.647 294.895 323.199L291.95 324.857C291.03 325.409 289.741 325.409 289.005 325.041Z" fill="#173D7A"/>
<path d="M302.995 333.144L293.791 327.803C293.055 327.435 293.055 326.698 293.975 326.146L296.92 324.488C297.841 323.936 299.129 323.936 299.866 324.304L309.07 329.645C309.806 330.013 309.806 330.75 308.885 331.302L305.94 332.96C305.02 333.512 303.731 333.512 302.995 333.144Z" fill="#173D7A"/>
<path d="M317.169 341.247L307.965 335.906C307.229 335.538 307.229 334.801 308.149 334.249L311.094 332.591C312.015 332.039 313.303 332.039 314.04 332.407L323.244 337.748C323.98 338.116 323.98 338.853 323.06 339.405L320.114 341.063C319.194 341.615 317.905 341.615 317.169 341.247Z" fill="#173D7A"/>
<path d="M331.159 349.35L321.955 344.009C321.219 343.641 321.219 342.904 322.139 342.352L325.085 340.694C326.005 340.142 327.294 340.142 328.03 340.51L337.234 345.851C337.97 346.219 337.97 346.956 337.05 347.508L334.104 349.166C333.184 349.718 331.896 349.718 331.159 349.35Z" fill="#173D7A"/>
<path d="M409.761 394.653L400.557 389.312C399.821 388.944 399.821 388.207 400.741 387.655L403.687 385.997C404.607 385.445 405.895 385.445 406.632 385.813L415.836 391.154C416.572 391.522 416.572 392.259 415.652 392.811L412.706 394.469C411.786 395.021 410.497 395.205 409.761 394.653Z" fill="#173D7A"/>
<path d="M423.751 402.756L414.547 397.415C413.811 397.047 413.811 396.31 414.731 395.758L417.676 394.1C418.597 393.548 419.885 393.548 420.622 393.916L429.826 399.257C430.562 399.625 430.562 400.362 429.642 400.914L426.696 402.572C425.776 403.124 424.487 403.308 423.751 402.756Z" fill="#173D7A"/>
<path d="M437.741 410.859L428.537 405.518C427.801 405.15 427.801 404.413 428.721 403.861L431.667 402.203C432.587 401.651 433.876 401.651 434.612 402.019L443.816 407.36C444.552 407.728 444.552 408.465 443.632 409.017L440.687 410.675C439.766 411.227 438.478 411.411 437.741 410.859Z" fill="#173D7A"/>
<path d="M451.915 419.146L442.711 413.806C441.975 413.437 441.975 412.701 442.895 412.148L445.841 410.491C446.761 409.938 448.05 409.938 448.786 410.307L457.99 415.647C458.726 416.015 458.726 416.752 457.806 417.305L454.861 418.962C453.94 419.514 452.652 419.514 451.915 419.146Z" fill="#173D7A"/>
<path d="M312.567 355.427L303.363 350.086C302.627 349.718 302.627 348.982 303.547 348.429L312.567 343.088C313.488 342.536 314.776 342.536 315.512 342.904L324.716 348.245C325.453 348.613 325.453 349.35 324.532 349.902L315.512 355.243C314.592 355.795 313.303 355.795 312.567 355.427Z" fill="#173D7A"/>
<path d="M326.741 363.53L317.537 358.19C316.801 357.821 316.801 357.085 317.721 356.532L326.741 351.191C327.662 350.639 328.95 350.639 329.687 351.007L338.891 356.348C339.627 356.716 339.627 357.453 338.706 358.005L329.687 363.346C328.766 363.898 327.478 364.083 326.741 363.53Z" fill="#173D7A"/>
<path d="M340.915 371.817L331.711 366.477C330.975 366.108 330.975 365.372 331.895 364.819L340.915 359.479C341.836 358.926 343.124 358.926 343.861 359.294L353.065 364.635C353.801 365.003 353.801 365.74 352.88 366.292L343.861 371.633C342.94 372.186 341.652 372.186 340.915 371.817Z" fill="#173D7A"/>
<path d="M355.274 379.92L346.07 374.58C345.333 374.211 345.333 373.475 346.254 372.922L355.274 367.581C356.194 367.029 357.483 367.029 358.219 367.397L367.423 372.738C368.159 373.106 368.159 373.843 367.239 374.395L358.219 379.736C357.298 380.288 356.01 380.473 355.274 379.92Z" fill="#173D7A"/>
<path d="M369.448 388.207L360.244 382.867C359.507 382.498 359.507 381.762 360.428 381.209L369.448 375.869C370.368 375.316 371.657 375.316 372.393 375.685L381.597 381.025C382.333 381.393 382.333 382.13 381.413 382.683L372.393 388.023C371.473 388.576 370.184 388.576 369.448 388.207Z" fill="#173D7A"/>
<path d="M383.622 396.31L374.418 390.97C373.682 390.601 373.682 389.865 374.602 389.312L383.622 383.972C384.542 383.419 385.831 383.419 386.567 383.788L395.771 389.128C396.507 389.497 396.507 390.233 395.587 390.786L386.567 396.126C385.647 396.679 384.358 396.863 383.622 396.31Z" fill="#173D7A"/>
<path d="M397.796 404.597L388.592 399.257C387.856 398.889 387.856 398.152 388.776 397.599L397.796 392.259C398.716 391.706 400.005 391.706 400.741 392.075L409.945 397.415C410.681 397.784 410.681 398.52 409.761 399.073L400.741 404.413C399.821 404.966 398.532 404.966 397.796 404.597Z" fill="#173D7A"/>
<path d="M411.97 412.701L402.766 407.36C402.03 406.992 402.03 406.255 402.95 405.702L411.97 400.362C412.891 399.809 414.179 399.809 414.915 400.178L424.119 405.518C424.856 405.887 424.856 406.623 423.935 407.176L414.915 412.516C413.995 413.069 412.706 413.253 411.97 412.701Z" fill="#173D7A"/>
<path d="M426.144 420.988L416.94 415.647C416.204 415.279 416.204 414.542 417.124 413.99L426.144 408.649C427.065 408.096 428.353 408.097 429.089 408.465L438.293 413.805C439.03 414.174 439.03 414.91 438.109 415.463L429.089 420.803C428.169 421.356 426.88 421.356 426.144 420.988Z" fill="#173D7A"/>
<path d="M231.572 356.348L204.512 340.694C203.776 340.326 203.776 339.589 204.696 339.037L213.716 333.696C214.637 333.144 215.925 333.144 216.662 333.512L243.721 349.166C244.458 349.534 244.458 350.271 243.537 350.823L234.517 356.164C233.597 356.716 232.308 356.9 231.572 356.348Z" fill="#173D7A"/>
<path d="M405.896 457.083L378.836 441.429C378.1 441.061 378.1 440.324 379.02 439.772L388.04 434.431C388.96 433.879 390.249 433.879 390.985 434.247L418.045 449.901C418.781 450.269 418.781 451.006 417.861 451.558L408.841 456.899C407.92 457.451 406.632 457.451 405.896 457.083Z" fill="#173D7A"/>
<path d="M349.015 442.35L339.811 437.009C339.075 436.641 339.075 435.905 339.995 435.352L350.856 429.091C351.776 428.538 353.065 428.538 353.801 428.906L363.005 434.247C363.741 434.615 363.741 435.352 362.821 435.905L351.96 442.166C351.04 442.718 349.751 442.903 349.015 442.35Z" fill="#173D7A"/>
<path d="M246.114 382.867L231.388 374.395C230.652 374.027 230.652 373.291 231.572 372.738L242.433 366.477C243.353 365.924 244.642 365.924 245.378 366.292L260.104 374.764C260.841 375.132 260.841 375.869 259.92 376.421L249.06 382.683C248.139 383.235 246.851 383.419 246.114 382.867Z" fill="#173D7A"/>
<path d="M335.393 434.615L320.667 426.144C319.93 425.776 319.93 425.039 320.851 424.487L331.711 418.225C332.632 417.673 333.92 417.673 334.657 418.041L349.383 426.512C350.119 426.881 350.119 427.617 349.199 428.17L338.338 434.431C337.418 434.984 336.129 434.984 335.393 434.615Z" fill="#173D7A"/>
<path d="M266.547 394.653L251.821 386.182C251.085 385.813 251.085 385.077 252.005 384.524L262.866 378.263C263.786 377.71 265.075 377.71 265.811 378.079L280.537 386.55C281.274 386.918 281.274 387.655 280.353 388.207L269.493 394.469C268.572 395.021 267.284 395.205 266.547 394.653Z" fill="#173D7A"/>
<path d="M265.811 378.263L329.686 415.095C330.423 415.463 330.423 416.384 329.686 416.752L318.642 423.198C317.905 423.566 316.617 423.566 315.696 423.198L251.821 386.366L265.811 378.263Z" fill="#173D7A"/>
<path d="M388.776 457.267L399.085 463.16C399.637 463.528 399.637 464.081 398.9 464.449L394.483 467.027C393.746 467.396 392.642 467.396 392.09 467.212L381.781 461.318C381.229 460.95 381.229 460.398 381.965 460.029L386.383 457.451C387.119 456.899 388.04 456.899 388.776 457.267Z" fill="#173D7A"/>
<path d="M374.418 448.98L384.726 454.873C385.279 455.241 385.279 455.794 384.542 456.162L380.124 458.74C379.388 459.109 378.284 459.109 377.731 458.924L367.423 453.031C366.871 452.663 366.871 452.111 367.607 451.742L372.025 449.164C372.761 448.796 373.866 448.612 374.418 448.98Z" fill="#173D7A"/>
<path d="M360.244 440.877L370.552 446.77C371.104 447.138 371.104 447.691 370.368 448.059L365.95 450.637C365.214 451.006 364.109 451.006 363.557 450.821L353.249 444.928C352.697 444.56 352.697 444.008 353.433 443.639L357.851 441.061C358.587 440.509 359.692 440.508 360.244 440.877Z" fill="#173D7A"/>
<path d="M382.333 444.56L392.642 450.453C393.194 450.821 393.194 451.374 392.458 451.742L388.04 454.32C387.303 454.689 386.199 454.689 385.647 454.505L375.338 448.611C374.786 448.243 374.786 447.691 375.522 447.322L379.94 444.744C380.677 444.192 381.597 444.192 382.333 444.56Z" fill="#173D7A"/>
<path d="M397.428 242.722L388.592 237.565C387.856 237.013 387.12 235.908 387.12 234.803C387.12 233.698 387.672 233.145 388.592 233.698L397.428 238.854C398.164 239.407 398.901 240.512 398.901 241.617C398.901 242.721 398.348 243.09 397.428 242.722Z" fill="#D4ECFF"/>
<path d="M418.413 254.876L405.527 247.326C404.791 246.773 404.055 245.668 404.055 244.563C404.055 243.458 404.607 242.906 405.527 243.458L418.413 251.009C419.149 251.561 419.886 252.666 419.886 253.771C419.886 254.692 419.149 255.244 418.413 254.876Z" fill="#D4ECFF"/>
<path d="M393.194 289.498L384.358 284.342C383.622 283.789 382.886 282.684 382.886 281.579C382.886 280.474 383.438 279.922 384.358 280.474L393.194 285.631C393.93 286.183 394.667 287.288 394.667 288.393C394.667 289.498 393.93 290.05 393.194 289.498Z" fill="#D4ECFF"/>
<path d="M411.786 300.363L398.901 292.813C398.164 292.26 397.428 291.155 397.428 290.05C397.428 288.946 397.98 288.393 398.901 288.945L411.786 296.496C412.522 297.049 413.259 298.153 413.259 299.258C413.259 300.363 412.522 300.732 411.786 300.363Z" fill="#D4ECFF"/>
<path d="M373.313 237.013L367.791 233.882C367.055 233.329 366.318 232.224 366.318 231.12C366.318 230.015 366.871 229.462 367.791 230.015L373.313 233.145C374.05 233.698 374.786 234.803 374.786 235.908C374.786 237.013 374.234 237.565 373.313 237.013Z" fill="#D4ECFF"/>
<path d="M392.09 255.981L375.338 246.221C374.602 245.668 373.866 244.563 373.866 243.458C373.866 242.353 374.418 241.801 375.338 242.353L392.09 252.114C392.826 252.666 393.562 253.771 393.562 254.876C393.562 255.981 393.01 256.534 392.09 255.981Z" fill="#D4ECFF"/>
<path d="M381.045 266.11L375.522 262.979C374.786 262.427 374.05 261.322 374.05 260.217C374.05 259.112 374.602 258.559 375.522 259.112L381.045 262.242C381.781 262.795 382.517 263.9 382.517 265.005C382.517 266.11 381.965 266.662 381.045 266.11Z" fill="#D4ECFF"/>
<path d="M418.229 320.621L403.503 312.15C402.766 311.597 402.03 310.492 402.03 309.387C402.03 308.282 402.582 307.73 403.503 308.282L418.229 316.754C418.965 317.306 419.702 318.411 419.702 319.516C419.702 320.437 419.149 320.989 418.229 320.621Z" fill="#D4ECFF"/>
<path d="M379.388 281.579L375.891 279.553C375.154 279.001 374.418 277.896 374.418 276.791C374.418 275.686 374.97 275.134 375.891 275.686L379.388 277.712C380.124 278.264 380.861 279.369 380.861 280.474C380.861 281.579 380.309 282.132 379.388 281.579Z" fill="#D4ECFF"/>
<path d="M380.493 298.706L376.075 296.128C375.338 295.575 374.602 294.47 374.602 293.365C374.602 292.26 375.154 291.708 376.075 292.26L380.493 294.839C381.229 295.391 381.965 296.496 381.965 297.601C381.965 298.706 381.413 299.258 380.493 298.706Z" fill="#D4ECFF"/>
<path d="M397.612 308.65L386.015 302.021C385.279 301.468 384.542 300.363 384.542 299.258C384.542 298.153 385.095 297.601 386.015 298.153L397.612 304.783C398.348 305.336 399.085 306.441 399.085 307.546C399.085 308.65 398.348 309.019 397.612 308.65Z" fill="#D4ECFF"/>
<path d="M384.542 309.387L376.259 304.599C375.522 304.046 374.786 302.942 374.786 301.837C374.786 300.732 375.338 300.179 376.259 300.732L384.542 305.52C385.279 306.072 386.015 307.177 386.015 308.282C386.015 309.387 385.463 309.755 384.542 309.387Z" fill="#D4ECFF"/>
<path d="M430.93 327.803L425.592 324.672C424.856 324.12 424.12 323.015 424.12 321.91C424.12 320.805 424.672 320.253 425.592 320.805L430.93 323.936C431.667 324.488 432.403 325.593 432.403 326.698C432.403 327.803 431.667 328.356 430.93 327.803Z" fill="#D4ECFF"/>
<path d="M401.478 277.896L386.751 269.425C386.015 268.872 385.279 267.767 385.279 266.662C385.279 265.557 385.831 265.005 386.751 265.557L401.478 274.029C402.214 274.581 402.95 275.686 402.95 276.791C402.95 277.896 402.398 278.448 401.478 277.896Z" fill="#D4ECFF"/>
<path d="M401.109 269.425L375.522 254.692C374.786 254.14 374.05 253.035 374.05 251.93C374.05 250.825 374.602 250.272 375.522 250.825L401.109 265.557C401.846 266.11 402.582 267.215 402.582 268.32C402.582 269.425 401.846 269.977 401.109 269.425Z" fill="#D4ECFF"/>
<path d="M390.433 279.738L375.707 271.266C374.97 270.714 374.234 269.609 374.234 268.504C374.234 267.399 374.786 266.846 375.707 267.399L390.433 275.87C391.169 276.423 391.906 277.528 391.906 278.633C391.906 279.738 391.169 280.29 390.433 279.738Z" fill="#D4ECFF"/>
<path d="M412.706 284.342L407.368 281.211C406.632 280.658 405.896 279.553 405.896 278.449C405.896 277.344 406.448 276.791 407.368 277.344L412.706 280.474C413.443 281.027 414.179 282.132 414.179 283.237C414.179 284.342 413.443 284.894 412.706 284.342Z" fill="#D4ECFF"/>
<path d="M457.99 277.528L426.512 259.296C425.776 258.743 425.04 257.638 425.04 256.533C425.04 255.429 425.592 254.876 426.512 255.429L457.99 273.66C458.726 274.213 459.463 275.318 459.463 276.423C459.463 277.528 458.726 278.08 457.99 277.528Z" fill="#D4ECFF"/>
<path d="M393.746 298.154L376.075 288.025C375.338 287.472 374.602 286.367 374.602 285.262C374.602 284.157 375.154 283.605 376.075 284.157L393.746 294.286C394.483 294.839 395.219 295.944 395.219 297.049C395.035 298.154 394.483 298.522 393.746 298.154Z" fill="#D4ECFF"/>
<path d="M380.677 232.961L367.791 225.411C367.055 224.858 366.318 223.753 366.318 222.648C366.318 221.543 366.871 220.991 367.791 221.543L380.677 229.094C381.413 229.646 382.149 230.751 382.149 231.856C382.149 232.961 381.597 233.514 380.677 232.961Z" fill="#D4ECFF"/>
<path d="M384.174 317.306L369.08 308.65C368.343 308.098 367.607 306.993 367.607 305.888C367.607 304.783 368.159 304.231 369.08 304.783L384.174 313.439C384.91 313.991 385.647 315.096 385.647 316.201C385.647 317.306 384.91 317.858 384.174 317.306Z" fill="#D4ECFF"/>
<path d="M0.368156 330.381L77.6816 285.447C92.9602 276.607 107.502 275.134 118.363 281.579C129.224 287.841 135.299 301.1 135.299 318.779V324.488C134.746 324.857 134.194 325.225 133.642 325.593V318.595C133.642 301.468 127.935 288.946 117.627 282.868C107.318 276.975 93.5124 278.264 78.602 286.736L1.28855 331.671C0.920395 331.855 0.368156 331.855 0.184076 331.302C-0.184083 331.118 -3.12179e-06 330.566 0.368156 330.381Z" fill="#D4ECFF"/>
<path d="M241.512 276.791V102.392C241.512 67.5864 265.995 24.8615 296.184 7.55054C310.91 -0.920781 324.9 -2.39405 335.393 3.6832C345.886 9.76044 351.776 22.4674 351.776 39.5942V51.7487C351.224 52.3012 350.672 52.8537 350.119 53.4061V39.5942C350.119 23.2041 344.597 10.8654 334.657 5.15647C324.716 -0.552463 311.279 0.736651 297.104 9.02381C267.468 26.1506 243.169 68.1389 243.169 102.392V276.607C243.169 305.52 226.234 339.773 203.04 360.399C203.04 359.663 203.04 358.926 203.04 358.189C225.313 337.748 241.512 304.783 241.512 276.791Z" fill="#D4ECFF"/>
<path d="M351.776 57.0894C354.537 54.5111 367.607 42.9091 386.751 39.9626C408.289 36.6477 417.308 61.8775 417.308 61.8775C417.308 61.8775 419.701 75.1369 419.701 82.8716C419.701 90.6063 418.965 118.783 418.965 118.783L350.672 79.3726C350.488 79.1884 350.119 79.0043 350.119 78.636V58.5626C350.672 58.0102 351.224 57.826 351.776 57.0894Z" fill="#173D7A"/>
<path d="M400.373 41.0675L335.577 3.68319L335.761 4.60398C325.821 -1.84158 310.726 -2.39406 290.478 12.3387C250.348 41.8041 245.562 82.6874 243.537 90.4221C241.512 98.1568 242.249 146.775 242.249 146.775C242.249 146.775 242.065 264.084 242.065 277.712C241.881 291.34 238.015 306.625 230.284 323.199C222.552 339.773 202.856 359.847 202.856 359.847V383.788C205.985 409.57 217.03 415.647 233.229 417.12C246.483 418.225 260.473 408.833 271.701 398.52C271.333 398.889 270.965 399.257 270.965 399.257V423.198C274.095 448.98 285.139 455.057 301.338 456.53C317.721 458.004 335.209 443.087 347.174 430.38C359.139 417.673 369.264 398.336 374.786 381.025C380.308 363.53 378.468 341.063 378.468 341.063C378.468 341.063 378.652 212.888 378.652 187.474C378.836 162.244 379.572 166.664 387.856 141.25C396.139 115.836 418.045 97.9726 418.045 97.9726L470.692 82.3191L400.373 41.0675Z" fill="#D4ECFF"/>
<path d="M287.532 453.952C286.612 452.663 275.015 444.928 272.07 431.301C270.413 423.75 270.597 412.148 270.597 412.148C270.597 412.148 270.597 405.702 270.781 399.809C270.965 399.625 270.965 399.625 271.149 399.441C271.149 398.704 271.149 397.968 271.149 397.231C270.965 397.415 270.965 397.415 270.781 397.599C270.781 396.31 270.965 395.021 270.965 393.916C271.333 387.839 266.731 374.948 266.731 374.948C266.731 374.948 260.473 357.637 241.512 356.9C224.761 356.348 207.09 368.318 203.224 371.081V363.346C203.04 363.53 202.672 363.714 202.488 363.898C202.488 362.793 202.488 361.688 202.488 360.768C202.672 360.583 202.672 360.583 202.856 360.399C202.856 359.663 202.856 358.926 202.856 358.189C202.672 358.374 202.672 358.374 202.488 358.558C202.488 357.269 202.672 355.98 202.672 354.875C203.04 348.797 198.438 335.906 198.438 335.906C198.438 335.906 192.179 318.595 173.219 317.859C156.468 317.306 138.796 329.276 134.93 332.039V324.304C134.378 324.672 133.826 325.041 133.274 325.409V339.037C133.274 355.611 138.796 368.134 148.92 374.211L149.289 374.395C149.473 374.395 149.473 374.58 149.657 374.58H149.841L219.239 414.542C219.239 414.542 219.239 414.542 219.239 414.358L287.532 453.952Z" fill="#173D7A"/>
<path d="M186.473 320.621C186.473 320.621 185.92 320.437 185 320.068C184.632 319.884 184.448 319.7 184.08 319.7L118.179 281.579C118.179 281.579 106.03 275.134 91.4876 280.658C76.7612 285.999 0.184082 332.039 0.184082 332.039L68.6617 371.449H68.8458L136.771 410.675C136.771 410.675 175.244 386.918 201.751 371.449L203.408 370.528C214.269 364.267 222.92 359.663 225.682 358.926C242.065 354.506 253.478 359.847 256.423 361.504L186.473 320.621Z" fill="#D4ECFF"/>
<path d="M256.607 361.136L257.343 361.504C257.527 361.688 257.159 361.504 256.607 361.136Z" fill="#D4ECFF"/>
<path d="M420.07 96.3152C422.831 93.737 435.9 82.1349 455.045 79.1884C476.582 75.8735 485.602 101.103 485.602 101.103C485.602 101.103 488.179 114.179 487.995 121.913C487.995 129.648 487.259 157.824 487.259 157.824L418.965 118.414C418.781 118.23 418.413 118.046 418.413 117.678V97.7885C418.781 97.236 419.333 96.8677 420.07 96.3152Z" fill="#173D7A"/>
<path d="M300.786 457.083C308.333 457.083 316.617 454.505 325.269 449.532C355.274 432.221 379.572 389.865 379.572 355.243V181.028C379.572 146.775 403.686 104.787 433.507 87.6597C447.682 79.3726 461.119 78.0835 471.06 83.7924C481 89.5013 486.522 101.84 486.522 118.23V157.272C486.522 157.824 486.89 158.193 487.443 158.193C487.995 158.193 488.363 157.824 488.363 157.272V118.23C488.363 101.103 482.473 88.3964 471.98 82.3191C461.487 76.2419 447.497 77.531 432.771 86.1865C402.582 103.682 377.915 146.222 377.915 181.028V355.243C377.915 389.312 353.985 430.932 324.348 448.059C310.174 456.162 296.92 457.635 286.98 451.926C277.04 446.217 271.517 434.063 271.517 417.673V397.231C271.517 379.552 265.443 366.292 254.582 360.031C243.721 353.77 229.179 355.059 213.9 363.898L136.587 408.833C136.219 409.017 136.035 409.57 136.219 409.938C136.403 410.306 136.955 410.491 137.323 410.306L214.637 365.372C229.363 356.9 243.169 355.427 253.662 361.504C263.97 367.397 269.677 380.104 269.677 397.231V417.673C269.677 434.615 275.383 447.322 285.876 453.4C290.662 455.794 295.632 457.083 300.786 457.083Z" fill="#396CAA"/>
<path d="M306.124 223.753L294.711 217.124C293.607 216.571 292.687 214.914 292.687 213.44C292.687 211.967 293.423 211.415 294.527 211.967L305.94 218.597C307.045 219.149 307.965 220.807 307.965 222.28C308.149 223.753 307.229 224.306 306.124 223.753Z" fill="#5793CE"/>
<path d="M330.423 237.749L313.488 227.989C312.383 227.436 311.463 225.779 311.463 224.306C311.463 222.832 312.199 222.28 313.303 222.832L330.239 232.593C331.343 233.145 332.264 234.803 332.264 236.276C332.264 237.749 331.527 238.486 330.423 237.749Z" fill="#5793CE"/>
<path d="M304.836 180.292L283.114 167.585C282.01 167.032 281.09 165.375 281.09 163.902C281.09 162.428 281.826 161.876 282.93 162.428L304.652 174.951C305.756 175.504 306.677 177.161 306.677 178.634C306.677 180.108 305.94 180.844 304.836 180.292Z" fill="#5793CE"/>
<path d="M290.478 193.367L283.299 189.316C282.194 188.763 281.274 187.106 281.274 185.632C281.274 184.159 282.01 183.607 283.114 184.159L290.294 188.211C291.398 188.763 292.318 190.421 292.318 191.894C292.503 193.367 291.582 193.92 290.478 193.367Z" fill="#5793CE"/>
<path d="M288.269 213.44L283.667 210.862C282.562 210.31 281.642 208.652 281.642 207.179C281.642 205.706 282.378 205.153 283.483 205.706L288.085 208.284C289.189 208.836 290.11 210.494 290.11 211.967C290.294 213.44 289.373 214.177 288.269 213.44Z" fill="#5793CE"/>
<path d="M317.169 208.652L298.025 197.603C296.92 197.05 296 195.393 296 193.92C296 192.446 296.736 191.894 297.841 192.446L316.985 203.496C318.09 204.048 319.01 205.706 319.01 207.179C319.01 208.652 318.09 209.389 317.169 208.652Z" fill="#5793CE"/>
<path d="M316.433 197.603L283.114 178.45C282.01 177.898 281.09 176.24 281.09 174.767C281.09 173.294 281.826 172.741 282.93 173.294L316.249 192.446C317.353 192.999 318.274 194.656 318.274 196.129C318.274 197.603 317.537 198.155 316.433 197.603Z" fill="#5793CE"/>
<path d="M302.627 211.046L283.483 199.997C282.378 199.444 281.458 197.787 281.458 196.314C281.458 194.84 282.194 194.288 283.299 194.84L302.443 205.89C303.547 206.442 304.468 208.1 304.468 209.573C304.468 211.046 303.731 211.599 302.627 211.046Z" fill="#5793CE"/>
<path d="M331.527 217.124L324.532 213.072C323.428 212.52 322.507 210.862 322.507 209.389C322.507 207.916 323.244 207.363 324.348 207.916L331.343 211.967C332.448 212.52 333.368 214.177 333.368 215.65C333.368 216.939 332.632 217.676 331.527 217.124Z" fill="#5793CE"/>
<path d="M311.831 162.797L300.418 156.167C299.313 155.614 298.393 153.957 298.393 152.484C298.393 151.01 299.129 150.458 300.234 151.01L311.647 157.64C312.751 158.193 313.672 159.85 313.672 161.323C313.672 162.797 312.935 163.349 311.831 162.797Z" fill="#5793CE"/>
<path d="M339.075 178.45L322.139 168.69C321.035 168.137 320.114 166.48 320.114 165.007C320.114 163.533 320.851 162.981 321.955 163.533L338.891 173.294C339.995 173.846 340.915 175.504 340.915 176.977C340.915 178.45 340.179 179.187 339.075 178.45Z" fill="#5793CE"/>
<path d="M306.124 223.753L294.711 217.123C293.607 216.571 292.687 214.914 292.687 213.44C292.687 211.967 293.423 211.415 294.527 211.967L305.94 218.597C307.045 219.149 307.965 220.807 307.965 222.28C308.149 223.753 307.229 224.306 306.124 223.753Z" fill="#5793CE"/>
<path d="M330.423 237.749L313.488 227.989C312.383 227.436 311.463 225.779 311.463 224.306C311.463 222.832 312.199 222.28 313.304 222.832L330.239 232.593C331.343 233.145 332.264 234.803 332.264 236.276C332.264 237.749 331.527 238.486 330.423 237.749Z" fill="#5793CE"/>
<path d="M280.537 155.43L273.358 151.379C272.254 150.826 271.333 149.169 271.333 147.696C271.333 146.222 272.07 145.67 273.174 146.222L280.353 150.274C281.458 150.826 282.378 152.484 282.378 153.957C282.378 155.43 281.642 155.983 280.537 155.43Z" fill="#5793CE"/>
<path d="M304.836 180.292L283.114 167.585C282.01 167.032 281.09 165.375 281.09 163.901C281.09 162.428 281.826 161.876 282.93 162.428L304.652 174.951C305.756 175.503 306.677 177.161 306.677 178.634C306.677 180.107 305.94 180.844 304.836 180.292Z" fill="#5793CE"/>
<path d="M290.478 193.367L283.299 189.315C282.194 188.763 281.274 187.106 281.274 185.632C281.274 184.159 282.01 183.607 283.114 184.159L290.294 188.21C291.398 188.763 292.318 190.42 292.318 191.894C292.503 193.367 291.582 193.919 290.478 193.367Z" fill="#5793CE"/>
<path d="M338.891 264.084L319.746 253.034C318.642 252.482 317.721 250.825 317.721 249.351C317.721 247.878 318.458 247.326 319.562 247.878L338.706 258.928C339.811 259.48 340.731 261.137 340.731 262.611C340.731 264.084 339.995 264.636 338.891 264.084Z" fill="#5793CE"/>
<path d="M288.269 213.44L283.667 210.862C282.562 210.31 281.642 208.652 281.642 207.179C281.642 205.706 282.378 205.153 283.483 205.706L288.085 208.284C289.189 208.836 290.109 210.494 290.109 211.967C290.294 213.44 289.373 214.177 288.269 213.44Z" fill="#5793CE"/>
<path d="M289.741 235.724L284.035 232.409C282.93 231.856 282.01 230.199 282.01 228.726C282.01 227.252 282.746 226.7 283.851 227.252L289.557 230.567C290.662 231.12 291.582 232.777 291.582 234.25C291.766 235.724 290.846 236.276 289.741 235.724Z" fill="#5793CE"/>
<path d="M312.015 248.615L297.104 239.959C296 239.407 295.08 237.749 295.08 236.276C295.08 234.803 295.816 234.25 296.92 234.803L311.831 243.458C312.935 244.011 313.856 245.668 313.856 247.141C313.856 248.431 312.935 249.167 312.015 248.615Z" fill="#5793CE"/>
<path d="M295.08 249.535L284.219 243.274C283.114 242.722 282.194 241.064 282.194 239.591C282.194 238.118 282.93 237.565 284.035 238.118L294.896 244.379C296 244.932 296.92 246.589 296.92 248.062C296.92 249.351 296.184 250.088 295.08 249.535Z" fill="#5793CE"/>
<path d="M317.169 208.652L298.025 197.603C296.92 197.05 296 195.393 296 193.92C296 192.446 296.736 191.894 297.841 192.446L316.985 203.496C318.09 204.048 319.01 205.706 319.01 207.179C319.01 208.652 318.09 209.389 317.169 208.652Z" fill="#5793CE"/>
<path d="M316.433 197.603L283.114 178.45C282.01 177.898 281.09 176.24 281.09 174.767C281.09 173.294 281.826 172.741 282.93 173.294L316.249 192.446C317.353 192.999 318.274 194.656 318.274 196.129C318.274 197.603 317.537 198.155 316.433 197.603Z" fill="#5793CE"/>
<path d="M302.627 211.046L283.483 199.997C282.378 199.444 281.458 197.787 281.458 196.314C281.458 194.84 282.194 194.288 283.299 194.84L302.443 205.89C303.547 206.442 304.468 208.1 304.468 209.573C304.468 211.046 303.731 211.599 302.627 211.046Z" fill="#5793CE"/>
<path d="M331.527 217.124L324.532 213.072C323.428 212.52 322.507 210.862 322.507 209.389C322.507 207.916 323.244 207.363 324.348 207.916L331.343 211.967C332.448 212.52 333.368 214.177 333.368 215.65C333.368 216.939 332.632 217.676 331.527 217.124Z" fill="#5793CE"/>
<path d="M306.861 234.803L284.035 221.543C282.93 220.991 282.01 219.333 282.01 217.86C282.01 216.387 282.746 215.834 283.851 216.387L306.677 229.646C307.781 230.199 308.702 231.856 308.702 233.33C308.702 234.803 307.965 235.539 306.861 234.803Z" fill="#5793CE"/>
<path d="M290.109 150.274L273.174 140.513C272.07 139.961 271.149 138.303 271.149 136.83C271.149 135.357 271.886 134.804 272.99 135.357L289.925 145.117C291.03 145.67 291.95 147.327 291.95 148.8C291.95 150.274 291.03 150.826 290.109 150.274Z" fill="#5793CE"/>
<path d="M294.527 259.848L275.015 248.615C273.91 248.062 272.99 246.405 272.99 244.931C272.99 243.458 273.726 242.906 274.831 243.458L294.343 254.692C295.448 255.244 296.368 256.902 296.368 258.375C296.368 259.848 295.448 260.401 294.527 259.848Z" fill="#5793CE"/>
<path d="M303.547 326.33L292.134 319.7C291.03 319.148 290.109 317.49 290.109 316.017C290.109 314.544 290.846 313.991 291.95 314.544L303.363 321.173C304.468 321.726 305.388 323.383 305.388 324.857C305.388 326.33 304.468 326.882 303.547 326.33Z" fill="#5793CE"/>
<path d="M327.662 340.326L310.726 330.565C309.622 330.013 308.701 328.356 308.701 326.882C308.701 325.409 309.438 324.857 310.542 325.409L327.478 335.169C328.582 335.722 329.502 337.379 329.502 338.853C329.686 340.326 328.766 340.878 327.662 340.326Z" fill="#5793CE"/>
<path d="M302.259 282.684L280.537 270.161C279.433 269.609 278.512 267.951 278.512 266.478C278.512 265.005 279.249 264.452 280.353 265.005L302.075 277.528C303.179 278.08 304.099 279.738 304.099 281.211C304.099 282.684 303.179 283.421 302.259 282.684Z" fill="#5793CE"/>
<path d="M287.901 295.944L280.721 291.892C279.617 291.34 278.697 289.682 278.697 288.209C278.697 286.736 279.433 286.183 280.537 286.736L287.716 290.787C288.821 291.34 289.741 292.997 289.741 294.47C289.741 295.759 289.005 296.496 287.901 295.944Z" fill="#5793CE"/>
<path d="M285.692 316.017L281.09 313.439C279.985 312.886 279.065 311.229 279.065 309.756C279.065 308.282 279.801 307.73 280.905 308.282L285.507 310.861C286.612 311.413 287.532 313.07 287.532 314.544C287.532 316.017 286.796 316.569 285.692 316.017Z" fill="#5793CE"/>
<path d="M314.408 311.229L295.264 300.179C294.159 299.627 293.239 297.969 293.239 296.496C293.239 295.023 293.975 294.47 295.08 295.023L314.224 306.072C315.328 306.625 316.249 308.282 316.249 309.756C316.249 311.229 315.513 311.781 314.408 311.229Z" fill="#5793CE"/>
<path d="M313.856 300.179L280.537 281.027C279.433 280.474 278.512 278.817 278.512 277.344C278.512 275.87 279.249 275.318 280.353 275.87L313.672 295.023C314.776 295.575 315.697 297.233 315.697 298.706C315.697 300.179 314.776 300.732 313.856 300.179Z" fill="#5793CE"/>
<path d="M300.05 313.623L280.906 302.573C279.801 302.021 278.881 300.363 278.881 298.89C278.881 297.417 279.617 296.864 280.721 297.417L299.866 308.466C300.97 309.019 301.891 310.676 301.891 312.15C301.891 313.623 300.97 314.175 300.05 313.623Z" fill="#5793CE"/>
<path d="M328.95 319.516L321.955 315.464C320.851 314.912 319.93 313.255 319.93 311.781C319.93 310.308 320.667 309.756 321.771 310.308L328.766 314.36C329.871 314.912 330.791 316.569 330.791 318.043C330.791 319.516 329.871 320.253 328.95 319.516Z" fill="#5793CE"/>
<path d="M453.02 538.665V473.473L431.851 461.318V526.511L453.02 538.665Z" fill="#C13D1A"/>
<path d="M453.02 473.473L474.189 461.318V526.511L453.02 538.665V473.473Z" fill="#DCA402"/>
<path d="M453.02 538.665V473.473L431.851 461.318V526.511L453.02 538.665Z" fill="#DCA402"/>
<path d="M408.104 565V528.352L386.935 516.198V552.845L408.104 565Z" fill="#DCA402"/>
<path d="M408.104 528.352L429.274 516.198V552.845L408.104 565V528.352Z" fill="#DCA402"/>
<path d="M386.935 516.198L408.104 503.859L429.274 516.198L408.104 528.352L386.935 516.198Z" fill="#FFC212"/>
<path d="M497.935 513.067V423.382L476.766 411.227V500.913L497.935 513.067Z" fill="#DCA402"/>
<path d="M497.935 423.382L519.104 411.227V500.913L497.935 513.067V423.382Z" fill="#DCA402"/>
<path d="M476.766 411.227L497.935 398.889L519.104 411.227L497.935 423.382L476.766 411.227Z" fill="#FFC212"/>
<path d="M431.851 461.318L453.02 449.164L474.189 461.318L453.02 473.473L431.851 461.318Z" fill="#FFC212"/>
<path d="M85.9653 442.719C85.9653 442.719 79.5225 439.404 75.4727 444.376C71.423 449.348 65.7165 460.95 65.5324 468.685C65.3483 476.604 71.7911 476.051 75.4727 474.21C79.3384 472.368 90.3832 456.346 90.9354 453.216C91.6717 450.085 90.1991 445.849 89.0946 444.928C87.9901 444.008 85.9653 442.719 85.9653 442.719Z" fill="#5793CE"/>
<path d="M87.4379 441.061L87.8061 447.875C87.8061 449.348 87.0698 450.637 85.9653 451.374C84.8608 452.111 83.2041 452.479 80.9952 452.111C76.025 451.374 75.6569 449.901 75.2887 443.087C74.5524 436.457 87.4379 441.061 87.4379 441.061Z" fill="#D4ECFF"/>
<path d="M62.0348 429.643C62.0348 429.643 55.5921 426.328 51.5423 431.3C47.4926 436.273 41.7861 447.875 41.602 455.609C41.4179 463.528 47.8607 462.976 51.5423 461.134C55.408 459.293 66.4528 443.271 67.005 440.14C67.7413 437.009 66.2687 432.774 65.1642 431.853C64.0597 430.932 62.0348 429.643 62.0348 429.643Z" fill="#5793CE"/>
<path d="M63.5076 428.17L63.8757 434.984C63.8757 436.457 63.1394 437.746 62.0349 438.483C60.9305 439.219 59.2737 439.588 57.0648 439.219C52.0946 438.483 51.7265 437.009 51.3583 430.196C50.8061 423.382 63.5076 428.17 63.5076 428.17Z" fill="#D4ECFF"/>
<path d="M121.677 303.862C119.652 272.371 87.6219 308.466 87.6219 308.466L65.7165 330.013L45.8359 351.744C41.9702 355.979 40.1294 361.688 40.8657 367.397L48.9652 428.354C49.3334 431.301 51.9105 433.51 55.0399 433.51C55.9603 433.51 56.8807 433.51 57.9851 433.326C65.1642 432.221 64.612 425.407 64.612 425.407L63.1394 368.318L104.741 343.272C104.741 343.457 123.702 335.354 121.677 303.862Z" fill="#173D7A"/>
<path d="M145.607 315.833C143.582 284.342 111.552 320.437 111.552 320.437L89.6468 341.983L69.7662 363.714C65.9005 367.95 64.0597 373.659 64.796 379.368L72.8955 440.324C73.2637 443.271 75.8408 445.481 78.9702 445.481C79.8906 445.481 80.811 445.481 81.9154 445.297C89.0945 444.192 88.5423 437.378 88.5423 437.378L87.0697 380.289L128.672 355.427C128.672 355.427 147.632 347.324 145.607 315.833Z" fill="#173D7A"/>
<path d="M126.647 214.73C150.945 224.858 150.577 239.223 150.577 239.223C150.577 239.223 145.791 292.076 147.448 327.251C148.184 341.983 69.2139 343.088 80.995 303.863C94.801 257.454 89.6468 219.886 96.2736 214.177C102.532 208.652 120.388 212.151 126.647 214.73Z" fill="#5793CE"/>
<path d="M134.378 227.621C133.09 232.593 126.647 235.171 119.836 233.514C113.025 231.856 108.791 226.332 109.896 221.359C111.184 216.387 117.627 213.809 124.438 215.466C131.249 217.124 135.667 222.648 134.378 227.621Z" fill="#FFC2B0"/>
<path d="M124.07 234.987C122.597 234.987 121.125 234.803 119.652 234.434C116.154 233.514 113.209 231.672 111.184 229.278C109.159 226.7 108.239 223.753 108.975 220.991C110.448 215.466 117.627 212.519 124.806 214.361C128.304 215.282 131.249 217.123 133.274 219.518C135.299 222.096 136.219 225.042 135.483 227.805C134.378 232.225 129.776 234.987 124.07 234.987ZM120.388 216.019C115.786 216.019 112.105 218.044 111.184 221.543C110.632 223.569 111.184 225.779 112.841 227.805C114.498 229.83 117.075 231.488 120.204 232.225C126.279 233.882 132.169 231.488 133.274 227.252C133.826 225.226 133.274 223.017 131.617 220.991C129.96 218.965 127.383 217.308 124.254 216.571C122.965 216.203 121.677 216.019 120.388 216.019Z" fill="white"/>
<path d="M116.891 213.625C116.891 213.625 117.075 214.545 116.707 222.28C116.522 224.674 124.99 227.068 127.199 224.858C129.408 222.648 128.488 220.438 129.04 212.151C129.592 203.864 116.891 213.625 116.891 213.625Z" fill="#FFC2B0"/>
<path d="M129.04 212.151C129.04 212.151 127.015 219.886 116.707 222.832L116.891 215.834L129.04 212.151Z" fill="#EA9C92"/>
<path d="M133.73 206.803C138.939 197.832 135.892 186.336 126.925 181.125C117.959 175.914 106.467 178.962 101.259 187.932C96.0498 196.903 99.0962 208.4 108.063 213.61C117.03 218.821 128.521 215.774 133.73 206.803Z" fill="#FFC2B0"/>
<path d="M121.677 197.971C121.677 197.971 111.368 202.391 104.189 202.391C97.01 202.391 98.6667 196.498 98.6667 196.498L119.836 193.367L121.677 197.971Z" fill="#EA9C92"/>
<path d="M102.164 199.26C102.164 199.26 111.184 195.393 119.099 197.05C120.94 197.419 122.597 198.339 123.886 199.813C124.254 200.365 124.806 200.733 125.358 200.918C126.831 201.286 129.04 195.393 131.801 195.209C134.562 195.024 136.403 197.05 134.194 200.549C131.985 204.048 132.721 208.1 133.826 208.652C134.93 209.205 145.791 200.918 136.219 181.949C126.647 162.981 102.164 173.11 98.4826 176.977C98.4826 176.977 94.4328 180.476 91.3035 177.345C90.7512 177.345 87.0696 204.785 102.164 199.26Z" fill="#593B00"/>
<path d="M136.771 277.896V292.261C136.771 293.918 136.035 295.391 134.93 296.496L105.662 323.199L108.975 328.356L147.632 300.364C149.473 299.074 150.577 297.049 150.761 294.839L153.338 269.977L136.771 277.896Z" fill="#FFC2B0"/>
<path d="M148.368 232.225C148.368 232.225 157.204 245.668 160.518 280.843C160.518 280.843 145.239 285.815 136.771 283.053C128.304 280.106 148.368 232.225 148.368 232.225Z" fill="#5793CE"/>
<path d="M135.299 248.983C135.299 248.983 131.801 267.583 131.617 276.423C131.617 278.817 133.09 281.027 135.299 281.763V248.983Z" fill="#396CAA"/>
<path d="M127.567 341.799L121.124 340.878L79.3382 316.754C78.0497 316.017 75.6566 316.017 74.184 316.938L44.5472 334.065L40.6815 333.512V337.379C40.6815 337.932 40.8656 338.3 41.6019 338.669L88.9104 366.108C90.1989 366.845 92.592 366.845 94.0646 365.924L126.279 347.324C127.199 346.772 127.567 346.219 127.567 345.482V341.799Z" fill="#5793CE"/>
<path d="M96.2736 326.514L93.3283 324.857H60.5621L44.5472 334.065L40.6815 333.512V337.379C40.6815 337.932 40.8656 338.3 41.6019 338.668L88.9104 366.108C89.6467 366.477 90.5671 366.661 91.6716 366.661L96.2736 326.514Z" fill="#396CAA"/>
<path d="M42.3382 333.696L40.6815 333.512V337.379C40.6815 337.932 40.8656 338.3 41.6019 338.669L42.5223 339.221V333.696H42.3382Z" fill="#5793CE"/>
<path d="M89.2786 366.476C90.5671 367.029 92.4079 366.845 93.6965 366.292V359.663H89.2786V366.476Z" fill="white"/>
<path d="M88.9106 362.241L41.6022 334.801C40.3136 334.065 40.4977 332.591 41.9703 331.855L74.1843 313.255C75.6569 312.334 78.0499 312.334 79.3385 313.07L126.647 340.51C127.936 341.247 127.751 342.72 126.279 343.457L94.0649 362.057C92.5922 362.978 90.1992 362.978 88.9106 362.241Z" fill="white"/>
<path d="M87.99 358.19L48.5969 335.354C47.4924 334.801 47.6765 333.512 48.9651 332.776L66.2686 323.015C67.5571 322.278 69.582 322.278 70.6865 322.831L110.08 345.667C111.184 346.219 111 347.508 109.711 348.245L92.4079 358.005C91.1193 358.742 89.0944 358.742 87.99 358.19Z" fill="#D4ECFF"/>
<path d="M75.8408 312.334L75.2886 315.649C74.9204 318.411 74.9204 321.358 75.4726 324.12L76.0249 327.067C76.393 328.724 77.6816 330.013 79.3383 330.197C80.6269 330.381 81.7314 329.461 81.9154 328.172L82.6518 321.173C82.6518 321.173 84.4925 323.568 85.2289 323.568C86.1493 323.568 84.3085 316.57 82.2836 312.518C80.6269 308.651 75.8408 312.334 75.8408 312.334Z" fill="#FFC2B0"/>
<path d="M92.0397 260.401L86.8855 270.53C85.597 272.924 85.0447 275.502 84.8606 278.08L82.6517 312.518L76.0248 312.334L73.0795 273.66C72.8955 272.555 73.0795 271.266 73.2636 270.161L76.7611 250.641L92.0397 260.401Z" fill="#FFC2B0"/>
<path d="M87.2537 365.003L83.204 359.847L41.4179 335.722C40.1293 334.985 39.0249 332.776 39.0249 331.118V296.864L36.6318 293.734L38.8408 292.445C39.209 292.076 39.7612 292.26 40.4975 292.629L87.806 320.069C89.0945 320.805 90.199 323.015 90.199 324.673V361.873C90.199 362.793 89.8308 363.53 89.2786 363.898L87.2537 365.003Z" fill="#173D7A"/>
<path d="M58.3532 345.298L55.408 343.641L39.0249 315.28V296.68L36.6318 293.55L38.8408 292.26C39.209 291.892 39.7612 292.076 40.4975 292.445L87.806 319.884C88.5423 320.253 89.0945 320.989 89.6468 321.91L58.3532 345.298Z" fill="#396CAA"/>
<path d="M37.7363 294.839L36.6318 293.365L38.8408 292.076C39.209 291.708 39.7612 291.892 40.4975 292.261L41.4179 292.813L37.7363 294.839Z" fill="#5793CE"/>
<path d="M88.3582 320.069C89.4627 320.989 90.199 322.647 90.3831 324.12L85.7811 326.882L83.5721 323.015L88.3582 320.069Z" fill="#274F89"/>
<path d="M85.597 320.989L38.2885 293.55C37 292.813 35.8955 293.55 35.8955 295.391V332.591C35.8955 334.433 37 336.459 38.2885 337.195L85.597 364.635C86.8856 365.372 87.99 364.635 87.99 362.793V325.593C88.1741 323.936 87.0696 321.91 85.597 320.989Z" fill="#5793CE"/>
<path d="M108.975 328.356L108.239 330.013C107.318 331.855 106.03 333.328 104.189 334.433L99.4029 337.379C97.9303 338.3 96.0895 338.3 94.6168 337.564C94.6168 337.564 94.4327 337.564 94.4327 337.379C92.9601 336.459 92.776 334.249 94.0646 332.96L99.0347 327.987C99.0347 327.987 96.2735 330.013 95.5372 329.276C94.985 328.724 98.2984 325.593 100.691 325.593C103.269 325.409 105.662 323.568 105.662 323.568L108.975 328.356Z" fill="#FFC2B0"/>
<path d="M96.4577 214.177C96.4577 214.177 78.4179 233.882 71.2388 251.745C71.2388 251.745 77.3134 262.795 92.4079 267.215C107.502 271.635 96.4577 214.177 96.4577 214.177Z" fill="#5793CE"/>
<path d="M89.0946 266.11L92.0398 237.934L85.2289 264.453C86.3334 265.005 87.6219 265.557 89.0946 266.11Z" fill="#396CAA"/>
<path d="M110.08 210.31L105.293 209.021C105.293 209.021 107.686 212.704 111 213.625C114.313 214.545 114.866 211.783 114.866 211.783L110.08 210.31Z" fill="white"/>
<path d="M135.851 202.575C135.851 204.048 134.562 205.337 133.09 205.337C131.617 205.337 130.328 204.048 130.328 202.575C130.328 201.102 131.617 199.813 133.09 199.813C134.562 199.813 135.851 201.102 135.851 202.575Z" fill="white"/>
<path d="M538.433 212.888L530.333 196.313L546.901 188.21L555 204.785L538.433 212.888ZM535.303 197.971L540.09 207.915L550.03 203.127L545.244 193.183L535.303 197.971Z" fill="#FFC212"/>
<path d="M117.811 521.539L134.378 521.723C135.667 520.065 137.323 518.592 139.532 517.303C148.552 512.146 162.91 511.594 172.667 516.014L182.423 506.806L197.517 506.99C196.781 506.437 196.045 506.069 195.124 505.517C174.139 493.362 140.269 493.362 119.284 505.517C115.418 507.727 112.289 510.305 109.896 512.883L117.811 521.539Z" fill="#DCA402"/>
<path d="M197.517 483.233V507.174L182.423 506.99V483.049L197.517 483.233Z" fill="#FFC212"/>
<path d="M172.667 492.257V516.198L182.423 506.99V483.049L172.667 492.257Z" fill="#DCA402"/>
<path d="M134.378 497.782V521.723L156.099 504.043L172.851 516.198V492.257L157.388 484.707C157.388 484.707 136.219 491.152 135.114 491.521C134.01 491.889 134.378 497.782 134.378 497.782Z" fill="#DCA402"/>
<path d="M117.811 497.598V521.539L134.378 521.723V497.782L117.811 497.598Z" fill="#DCA402"/>
<path d="M109.896 489.127V513.067L117.811 521.539V497.598L109.896 489.127Z" fill="#FFC212"/>
<path d="M117.811 497.598L134.378 497.782C135.667 496.125 137.323 494.651 139.532 493.362C148.552 488.206 162.91 487.653 172.667 492.073L182.423 482.865L197.517 483.049C196.781 482.497 196.045 482.128 195.124 481.576C174.139 469.421 140.269 469.421 119.284 481.576C115.418 483.786 112.289 486.364 109.896 488.942L117.811 497.598Z" fill="#FFC212"/>
<path d="M177.637 495.204V517.119L191.811 513.62C191.811 513.62 190.89 500.729 190.706 500.36C190.522 500.176 177.637 495.204 177.637 495.204Z" fill="#5793CE"/>
<path d="M166.96 517.119V541.059L168.433 542.717L178.557 537.008C178.557 537.008 177.084 518.776 176.9 518.408C176.532 518.039 166.96 517.119 166.96 517.119Z" fill="#173D7A"/>
<path d="M186.288 511.041L177.637 519.144C184.816 524.853 183.895 532.772 175.06 537.929C172.667 539.402 169.905 540.323 166.776 541.059L175.612 550.636L167.696 558.002C177.637 556.897 187.209 553.95 195.124 549.531C213.164 539.218 215.557 523.196 202.672 511.226L186.288 511.041Z" fill="#396CAA"/>
<path d="M167.88 534.061V558.002L187.393 550.451L210.955 527.984V502.57L185.92 522.459L167.88 534.061Z" fill="#396CAA"/>
<path d="M186.288 487.101L177.637 495.204C184.816 500.913 183.895 508.831 175.06 513.988C172.667 515.461 169.905 516.382 166.776 517.119L175.612 526.695L167.696 534.061C177.637 532.956 187.209 530.01 195.124 525.59C213.164 515.277 215.557 499.255 202.672 487.285L186.288 487.101Z" fill="#D4ECFF"/>
<path d="M167.881 550.451L159.965 542.164C152.602 542.533 145.055 541.244 139.532 537.929C133.826 534.614 131.433 530.01 132.353 525.774L113.577 525.406L106.398 517.671C100.139 528.537 104.373 540.875 119.284 549.531C130.144 555.792 144.687 558.923 159.045 558.554L167.881 550.451Z" fill="#396CAA"/>
<path d="M159.229 534.798V558.739L103.637 527.984V503.859L111.736 507.174L159.229 534.798Z" fill="#396CAA"/>
<path d="M167.88 526.511V550.451L159.229 558.739V534.798L167.88 526.511Z" fill="#173D7A"/>
<path d="M167.881 526.511L159.965 518.224C152.602 518.592 145.055 517.303 139.532 513.988C133.826 510.673 131.433 506.069 132.353 501.833L113.577 501.465L106.398 493.73C100.139 504.596 104.373 516.935 119.284 525.59C130.144 531.851 144.687 534.982 159.045 534.614L167.881 526.511Z" fill="#5793CE"/>
<path d="M43.4427 140.513C36.8158 140.513 31.4775 135.173 31.4775 128.543C31.4775 121.913 36.8158 116.573 43.4427 116.573C50.0696 116.573 55.4079 121.913 55.4079 128.543C55.4079 135.173 50.0696 140.513 43.4427 140.513ZM43.4427 120.256C38.8407 120.256 35.1591 123.939 35.1591 128.543C35.1591 133.147 38.8407 136.83 43.4427 136.83C48.0447 136.83 51.7263 133.147 51.7263 128.543C51.7263 123.939 48.0447 120.256 43.4427 120.256Z" fill="#5793CE"/>
<path d="M458.358 17.3109C458.358 23.0199 453.756 27.6238 448.05 27.6238C442.343 27.6238 437.741 23.0199 437.741 17.3109C437.741 11.602 442.343 6.99801 448.05 6.99801C453.756 6.81385 458.358 11.4178 458.358 17.3109Z" fill="#D4ECFF"/>
<path d="M402.398 124.307L353.249 95.9468C352.328 95.3944 351.408 95.3944 350.672 95.7627L345.885 98.5251C345.885 98.5251 347.91 99.2617 349.199 99.8142V135.725C349.199 138.672 351.04 141.987 353.249 143.276L400.373 170.531V174.767L405.159 172.005C405.895 171.452 406.448 170.347 406.448 168.874V131.858C406.264 128.911 404.607 125.596 402.398 124.307Z" fill="#DCA402"/>
<path d="M397.612 174.399L348.463 146.038C346.254 144.749 344.413 141.434 344.413 138.488V101.656C344.413 98.7092 346.254 97.4201 348.463 98.7092L397.612 127.07C399.821 128.359 401.662 131.674 401.662 134.62V171.268C401.478 174.214 399.637 175.504 397.612 174.399Z" fill="#FFC212"/>
<path d="M364.846 133.331C364.846 135.541 363.373 136.278 361.532 135.173C359.691 134.068 358.219 131.49 358.219 129.464C358.219 127.254 359.691 126.517 361.532 127.622C363.373 128.543 364.846 131.121 364.846 133.331Z" fill="white"/>
<path d="M374.97 139.04C374.97 141.25 373.497 141.986 371.657 140.882C369.816 139.777 368.343 137.198 368.343 135.173C368.343 132.963 369.816 132.226 371.657 133.331C373.497 134.436 374.97 137.014 374.97 139.04Z" fill="white"/>
<path d="M384.91 144.933C384.91 147.143 383.438 147.88 381.597 146.775C379.756 145.67 378.284 143.092 378.284 141.066C378.284 138.856 379.756 138.119 381.597 139.224C383.438 140.145 384.91 142.723 384.91 144.933Z" fill="white"/>
<path d="M163.094 68.323L114.866 40.515C113.945 39.9625 113.025 39.9625 112.289 40.3308L107.687 43.0932C107.687 43.0932 109.711 43.8298 111 44.3823V79.5567C111 82.5032 112.657 85.8181 114.866 86.923L161.07 113.626V117.678L165.856 114.915C166.592 114.363 167.144 113.442 167.144 111.785V75.8735C166.96 72.9269 165.119 69.6121 163.094 68.323Z" fill="#5793CE"/>
<path d="M158.308 117.493L110.08 89.5012C107.871 88.2121 106.214 84.8972 106.214 82.1349V46.2239C106.214 43.2773 107.871 41.9882 110.08 43.2773L158.308 71.0853C160.517 72.3744 162.174 75.6893 162.174 78.4517V114.363C162.174 117.309 160.517 118.598 158.308 117.493Z" fill="#D4ECFF"/>
<path d="M126.279 77.1626C126.279 79.1883 124.806 80.1091 122.965 79.0042C121.124 77.8992 119.652 75.5051 119.652 73.2952C119.652 71.2695 121.124 70.3487 122.965 71.4537C124.806 72.5586 126.279 75.1368 126.279 77.1626Z" fill="white"/>
<path d="M136.035 82.8714C136.035 84.8972 134.562 85.818 132.721 84.713C130.881 83.6081 129.408 81.214 129.408 79.0041C129.408 76.9784 130.881 76.0576 132.721 77.1625C134.562 78.2675 136.035 80.8457 136.035 82.8714Z" fill="white"/>
<path d="M145.975 88.5804C145.975 90.6062 144.502 91.527 142.662 90.422C140.821 89.3171 139.348 86.923 139.348 84.7131C139.348 82.6873 140.821 81.7665 142.662 82.8715C144.502 83.9765 145.975 86.5547 145.975 88.5804Z" fill="white"/>
</g>
<defs>
<clipPath id="clip0">
<rect width="555" height="565" fill="white"/>
</clipPath>
</defs>
</svg>
