<svg width="50" height="50" viewBox="0 0 50 50" fill="none" xmlns="http://www.w3.org/2000/svg">
<g>
    <rect x="0.5" y="0.5" width="49" height="49" rx="24.5" stroke="#FFC212"/>
    <path d="M34.5156 19.125C34.5469 19.25 34.5625 19.4531 34.5625 19.7344C34.5625 21.3906 34.25 23.0469 33.625 24.7031C33 26.3281 32.1094 27.8281 30.9531 29.2031C29.8281 30.5469 28.3594 31.6406 26.5469 32.4844C24.7344 33.3281 22.7344 33.75 20.5469 33.75C17.7969 33.75 15.2812 33.0156 13 31.5469C13.3438 31.5781 13.7344 31.5938 14.1719 31.5938C16.4531 31.5938 18.5 30.8906 20.3125 29.4844C19.2188 29.4844 18.25 29.1719 17.4062 28.5469C16.5938 27.8906 16.0312 27.0781 15.7188 26.1094C16.0312 26.1406 16.3281 26.1562 16.6094 26.1562C17.0469 26.1562 17.4844 26.1094 17.9219 26.0156C17.1719 25.8594 16.5 25.5469 15.9062 25.0781C15.3125 24.6094 14.8438 24.0469 14.5 23.3906C14.1562 22.7031 13.9844 21.9688 13.9844 21.1875V21.0938C14.6719 21.5 15.4062 21.7188 16.1875 21.75C14.7188 20.75 13.9844 19.375 13.9844 17.625C13.9844 16.75 14.2188 15.9219 14.6875 15.1406C15.9062 16.6719 17.3906 17.8906 19.1406 18.7969C20.9219 19.7031 22.8125 20.2031 24.8125 20.2969C24.75 19.9219 24.7188 19.5469 24.7188 19.1719C24.7188 17.8281 25.1875 16.6719 26.125 15.7031C27.0938 14.7344 28.25 14.25 29.5938 14.25C31.0312 14.25 32.2344 14.7656 33.2031 15.7969C34.3281 15.5781 35.375 15.1875 36.3438 14.625C35.9688 15.7812 35.25 16.6875 34.1875 17.3438C35.125 17.2188 36.0625 16.9531 37 16.5469C36.3125 17.5469 35.4844 18.4062 34.5156 19.125Z" fill="#FFC212"/>
</g>
</svg>
